{
	"name": "Best Pizza",
	"toppings": ["dough_crust", "marinara_sauce", "mozzarella_cheese", "cheddar_cheese", "mushrooms", "pepperoni", "banana_peppers", "ham", "green_peppers"],
	"img": "//my-aws-pizza-bucket.s3-us-west-2.amazonaws.com/pizzas/best-pizza.png",
	"username": "ryan"
}
